double numero1=51.3;
double numero2=53;
double numero3;
int numero4;
int numero5=35;
string palabra1="holas";
string palabra2="jojo";
string palabra3;
imprimirtodo();
scanf(numero3);
scanf(numero4);
scanf(palabra3);
printf("ejemplo 3 de double: "+numero3);
printf("ejemplo 1 de int: "+numero4);
printf("ejemplo 3 de string: "+palabra3);
int numero1=darvalorint();
for(i=1;i<3;i++){
if(numero1==5){
printf("todo bien");
numero1=3;
}
else{
printf("todo mal");
}
}
while(true){
printf("bucle infinito pero uso el break :u ez");
break;
}
imprimirtodo(){
printf("ejemplo 1 de double: "+numero1);
printf("ejemplo 2 de double: "+numero2);
printf("ejemplo 3 de double: "+numero3);
printf("ejemplo 1 de int: "+numero4);
printf("ejemplo 2 de int: "+numero5);
printf("ejemplo 1 de string: "+palabra1);
printf("ejemplo 2 de string: "+palabra2);
printf("ejemplo 3 de string: "+palabra3);
}
darvalorint(){
return 5;
}
arr_token[] = {"tipo", "nombre", "asignacion", "valor", "fin"},

arr_token[] = [
    //Formato 1
    {
        {"Tipo", "double"},
        {"Nombre", "nombre1"},
        {"asignacion", "="},
        {"valor", "53.1"},
        {"fin", ";"},
    },
    //Formato 2
    {
        //Tokens de Tipo
        {"Tipo", "double"},
        {"Nombre", "nombre1"},
        {"asignacion", "="},
    },
]


if(pala._tipo == arr_token[0]){
    if (pala._nombre == arr_token[1])
}


arr_var = [
    {tipo: "Double", nombre: "nombre1", valor: "53.1"},
    {tipo: "Double", nombre: "nombre1", valor: "53.1"},
    {tipo: "Double", nombre: "nombre1", valor: "53.1"},

]
        TOKENS NO EXPLICITOS
tokens de tipo: double, int, string
token de nombre: cualquier nombre de variable
token de asignacion: =
token de valor_num: cualquier numero
token de valor: comilla + cualquier texto
token de fin: ;
token de funcion: nombrefuncion(